<?xml version="1.0" encoding="UTF-8"?>
<svg width="43px" height="28px" viewBox="0 0 43 28" version="1.1" xmlns="http://www.w3.org/2000/svg" xmlns:xlink="http://www.w3.org/1999/xlink">
    <!-- Generator: Sketch 46.2 (44496) - http://www.bohemiancoding.com/sketch -->
    <title>la tra</title>
    <desc>Created with Sketch.</desc>
    <defs></defs>
    <g id="Page-1" stroke="none" stroke-width="1" fill="none" fill-rule="evenodd">
        <g id="04---thức-uống" transform="translate(-699.000000, -293.000000)" fill="#FFFFFF">
            <g id="Menu-Tab" transform="translate(0.000000, 123.000000)">
                <g id="Group-9" transform="translate(290.000000, 108.000000)">
                    <g id="Group-2" transform="translate(294.000000, 0.000000)">
                        <g id="la-tra" transform="translate(137.657857, 75.670158) rotate(-17.000000) translate(-137.657857, -75.670158) translate(117.657857, 61.170158)">
                            <g id="Group-3" transform="translate(0.000000, 0.369517)">
                                <path d="M9.78013793,6.15213793 C13.8022069,11.3893793 14.5608276,18.4307586 12.5828966,25.8666207 C11.8022069,21.6611034 10.2918621,16.9093793 8.08496552,12.1742069 C6.73324138,9.29696552 5.26841379,6.69006897 3.74565517,4.42524138 C4.37737931,9.12041379 6.02151724,14.6914483 8.616,20.2417931 C9.66565517,22.5176552 10.8228966,24.610069 12.0091034,26.5190345 C8.75806897,25.2169655 5.95806897,23.2597241 3.87255172,20.5507586 C-0.306758621,15.1286897 -0.981241379,7.75075862 1.26151724,0.0100689655 C4.69048276,1.30110345 7.61186207,3.33834483 9.78013793,6.15213793" id="Fill-1"></path>
                            </g>
                            <g id="Group-6" transform="translate(13.793103, 16.921241)">
                                <path d="M18.848,9.82675862 C13.6576552,12.4377931 7.36524138,11.7095172 1.15834483,8.50813793 C4.9542069,8.62537931 9.34041379,8.19365517 13.8148966,7.12468966 C16.528,6.48055172 19.0411034,5.67503448 21.2411034,4.74262069 C17.0397241,4.38262069 11.9114483,4.78537931 6.66317241,6.02813793 C4.51834483,6.52606897 2.50041379,7.15641379 0.656275862,7.84055172 C2.26868966,5.17434483 4.40524138,3.05296552 7.08110345,1.69158621 C12.4617931,-0.996689655 19.0176552,-0.178758621 25.4755862,3.35089655 C23.8397241,6.19227586 21.6355862,8.424 18.848,9.82675862" id="Fill-4"></path>
                            </g>
                            <path d="M22.1817931,8.53944828 C21.6411034,13.1918621 19.4052414,17.2304828 16.1693793,20.1904828 C17.3983448,17.6291034 18.5693793,14.4222069 19.5211034,10.9022069 C20.0948966,8.76565517 20.5431724,6.69117241 20.8521379,4.80013793 C19.3997241,7.54634483 17.9845517,11.2442759 16.8617931,15.3753103 C16.4024828,17.0787586 16.0355862,18.7146207 15.7376552,20.2663448 C15.1569655,18.0594483 14.9528276,15.7091034 15.2231724,13.3091034 C15.7942069,8.48841379 18.1555862,4.29944828 21.590069,1.30772414 C22.2397241,3.59875862 22.4755862,6.04565517 22.1817931,8.53944828" id="Fill-7"></path>
                        </g>
                    </g>
                </g>
            </g>
        </g>
    </g>
</svg>